<?xml version="1.0" standalone="no"?>
<!DOCTYPE svg PUBLIC "-//W3C//DTD SVG 20010904//EN"
 "http://www.w3.org/TR/2001/REC-SVG-20010904/DTD/svg10.dtd">
<svg version="1.0" xmlns="http://www.w3.org/2000/svg"
 width="96.000000pt" height="96.000000pt" viewBox="0 0 96.000000 96.000000"
 preserveAspectRatio="xMidYMid meet">

<g transform="translate(0.000000,96.000000) scale(0.100000,-0.100000)"
fill="#000000" stroke="none">
<path d="M344 871 c-84 -21 -143 -91 -144 -168 l0 -32 48 22 c38 18 65 22 147
22 144 0 228 -35 180 -75 -8 -7 -15 -28 -15 -48 0 -34 0 -35 20 -17 28 25 28
142 1 202 -33 71 -147 117 -237 94z"/>
<path d="M200 628 c0 -22 7 -41 20 -53 20 -18 20 -17 20 17 0 22 -7 41 -20 53
-20 18 -20 17 -20 -17z"/>
<path d="M304 569 c-10 -17 13 -36 27 -22 12 12 4 33 -11 33 -5 0 -12 -5 -16
-11z"/>
<path d="M464 569 c-10 -17 13 -36 27 -22 12 12 4 33 -11 33 -5 0 -12 -5 -16
-11z"/>
<path d="M257 306 c-78 -29 -139 -92 -163 -173 -24 -79 -42 -73 239 -73 l252
0 -5 117 -5 118 -35 12 c-35 12 -35 12 -87 -45 l-53 -57 -52 57 -53 57 -38
-13z"/>
<path d="M692 200 c-7 -12 -8 -20 -2 -20 5 0 10 -9 10 -20 0 -11 5 -20 10 -20
6 0 10 9 10 20 0 11 5 20 10 20 6 0 5 8 -2 20 -7 11 -15 20 -18 20 -3 0 -11
-9 -18 -20z"/>
<path d="M772 200 c-7 -12 -8 -20 -2 -20 5 0 10 -9 10 -20 0 -11 5 -20 10 -20
6 0 10 9 10 20 0 11 5 20 10 20 6 0 5 8 -2 20 -7 11 -15 20 -18 20 -3 0 -11
-9 -18 -20z"/>
<path d="M680 110 c0 -6 30 -10 70 -10 40 0 70 4 70 10 0 6 -30 10 -70 10 -40
0 -70 -4 -70 -10z"/>
</g>
</svg>
